<?xml version="1.0" encoding="UTF-8" standalone="no"?>
<!-- Created with Inkscape (http://www.inkscape.org/) -->

<svg
   xmlns:dc="http://purl.org/dc/elements/1.1/"
   xmlns:cc="http://creativecommons.org/ns#"
   xmlns:rdf="http://www.w3.org/1999/02/22-rdf-syntax-ns#"
   xmlns:svg="http://www.w3.org/2000/svg"
   xmlns="http://www.w3.org/2000/svg"
   xmlns:sodipodi="http://sodipodi.sourceforge.net/DTD/sodipodi-0.dtd"
   xmlns:inkscape="http://www.inkscape.org/namespaces/inkscape"
   width="100"
   height="100"
   id="svg6507"
   version="1.1"
   inkscape:version="0.48.4 r9939"
   sodipodi:docname="55.svg">
  <defs
     id="defs5498">
    <pattern
       inkscape:stockid="Polka dots, small"
       id="Polkadots-small"
       patternTransform="translate(0,0) scale(10,10)"
       height="10"
       width="10"
       patternUnits="userSpaceOnUse"
       inkscape:collect="always">
      <circle
         id="circle5147"
         r="0.05"
         cy="0.810"
         cx="2.567"
         style="fill:black;stroke:none" />
      <circle
         id="circle5149"
         r="0.05"
         cy="2.33"
         cx="3.048"
         style="fill:black;stroke:none" />
      <circle
         id="circle5151"
         r="0.05"
         cy="2.415"
         cx="4.418"
         style="fill:black;stroke:none" />
      <circle
         id="circle5153"
         r="0.05"
         cy="3.029"
         cx="1.844"
         style="fill:black;stroke:none" />
      <circle
         id="circle5155"
         r="0.05"
         cy="1.363"
         cx="6.08"
         style="fill:black;stroke:none" />
      <circle
         id="circle5157"
         r="0.05"
         cy="4.413"
         cx="5.819"
         style="fill:black;stroke:none" />
      <circle
         id="circle5159"
         r="0.05"
         cy="4.048"
         cx="4.305"
         style="fill:black;stroke:none" />
      <circle
         id="circle5161"
         r="0.05"
         cy="3.045"
         cx="5.541"
         style="fill:black;stroke:none" />
      <circle
         id="circle5163"
         r="0.05"
         cy="5.527"
         cx="4.785"
         style="fill:black;stroke:none" />
      <circle
         id="circle5165"
         r="0.05"
         cy="5.184"
         cx="2.667"
         style="fill:black;stroke:none" />
      <circle
         id="circle5167"
         r="0.05"
         cy="1.448"
         cx="7.965"
         style="fill:black;stroke:none" />
      <circle
         id="circle5169"
         r="0.05"
         cy="5.049"
         cx="7.047"
         style="fill:black;stroke:none" />
      <circle
         id="circle5171"
         r="0.05"
         cy="0.895"
         cx="4.340"
         style="fill:black;stroke:none" />
      <circle
         id="circle5173"
         r="0.05"
         cy="0.340"
         cx="7.125"
         style="fill:black;stroke:none" />
      <circle
         id="circle5175"
         r="0.05"
         cy="1.049"
         cx="9.553"
         style="fill:black;stroke:none" />
      <circle
         id="circle5177"
         r="0.05"
         cy="2.689"
         cx="7.006"
         style="fill:black;stroke:none" />
      <circle
         id="circle5179"
         r="0.05"
         cy="2.689"
         cx="8.909"
         style="fill:black;stroke:none" />
      <circle
         id="circle5181"
         r="0.05"
         cy="4.407"
         cx="9.315"
         style="fill:black;stroke:none" />
      <circle
         id="circle5183"
         r="0.05"
         cy="3.870"
         cx="7.820"
         style="fill:black;stroke:none" />
      <circle
         id="circle5185"
         r="0.05"
         cy="5.948"
         cx="8.270"
         style="fill:black;stroke:none" />
      <circle
         id="circle5187"
         r="0.05"
         cy="7.428"
         cx="7.973"
         style="fill:black;stroke:none" />
      <circle
         id="circle5189"
         r="0.05"
         cy="8.072"
         cx="9.342"
         style="fill:black;stroke:none" />
      <circle
         id="circle5191"
         r="0.05"
         cy="9.315"
         cx="8.206"
         style="fill:black;stroke:none" />
      <circle
         id="circle5193"
         r="0.05"
         cy="9.475"
         cx="9.682"
         style="fill:black;stroke:none" />
      <circle
         id="circle5195"
         r="0.05"
         cy="6.186"
         cx="9.688"
         style="fill:black;stroke:none" />
      <circle
         id="circle5197"
         r="0.05"
         cy="6.296"
         cx="3.379"
         style="fill:black;stroke:none" />
      <circle
         id="circle5199"
         r="0.05"
         cy="8.204"
         cx="2.871"
         style="fill:black;stroke:none" />
      <circle
         id="circle5201"
         r="0.05"
         cy="8.719"
         cx="4.59"
         style="fill:black;stroke:none" />
      <circle
         id="circle5203"
         r="0.05"
         cy="9.671"
         cx="3.181"
         style="fill:black;stroke:none" />
      <circle
         id="circle5205"
         r="0.05"
         cy="7.315"
         cx="5.734"
         style="fill:black;stroke:none" />
      <circle
         id="circle5207"
         r="0.05"
         cy="6.513"
         cx="6.707"
         style="fill:black;stroke:none" />
      <circle
         id="circle5209"
         r="0.05"
         cy="9.670"
         cx="5.730"
         style="fill:black;stroke:none" />
      <circle
         id="circle5211"
         r="0.05"
         cy="8.373"
         cx="6.535"
         style="fill:black;stroke:none" />
      <circle
         id="circle5213"
         r="0.05"
         cy="7.154"
         cx="4.37"
         style="fill:black;stroke:none" />
      <circle
         id="circle5215"
         r="0.05"
         cy="7.25"
         cx="0.622"
         style="fill:black;stroke:none" />
      <circle
         id="circle5217"
         r="0.05"
         cy="5.679"
         cx="0.831"
         style="fill:black;stroke:none" />
      <circle
         id="circle5219"
         r="0.05"
         cy="8.519"
         cx="1.257"
         style="fill:black;stroke:none" />
      <circle
         id="circle5221"
         r="0.05"
         cy="6.877"
         cx="1.989"
         style="fill:black;stroke:none" />
      <circle
         id="circle5223"
         r="0.05"
         cy="3.181"
         cx="0.374"
         style="fill:black;stroke:none" />
      <circle
         id="circle5225"
         r="0.05"
         cy="1.664"
         cx="1.166"
         style="fill:black;stroke:none" />
      <circle
         id="circle5227"
         r="0.05"
         cy="0.093"
         cx="1.151"
         style="fill:black;stroke:none" />
      <circle
         id="circle5229"
         r="0.05"
         cy="10.093"
         cx="1.151"
         style="fill:black;stroke:none" />
      <circle
         id="circle5231"
         r="0.05"
         cy="4.451"
         cx="1.302"
         style="fill:black;stroke:none" />
      <circle
         id="circle5233"
         r="0.05"
         cy="3.763"
         cx="3.047"
         style="fill:black;stroke:none" />
    </pattern>
    <filter
       id="filter2987"
       inkscape:label="Wrinkled varnish"
       inkscape:menu="Bumps"
       inkscape:menu-tooltip="Thick glossy and translucent paint texture with high depth"
       color-interpolation-filters="sRGB"
       height="1.5"
       y="-0.25"
       width="1.5"
       x="-0.25">
      <feColorMatrix
         id="feColorMatrix2989"
         result="fbSourceGraphicAlpha"
         in="SourceGraphic"
         values="1 0 0 -1 0 1 0 1 -1 0 1 0 0 -1 0 -0.8 -1 0 3.7 -2.4 " />
      <feGaussianBlur
         id="feGaussianBlur2991"
         stdDeviation="0.5"
         in="fbSourceGraphicAlpha"
         result="result0" />
      <feSpecularLighting
         id="feSpecularLighting2993"
         result="result8"
         specularConstant="0.75"
         specularExponent="6"
         in="result0"
         surfaceScale="7">
        <feDistantLight
           id="feDistantLight2995"
           azimuth="235"
           elevation="15" />
      </feSpecularLighting>
      <feDiffuseLighting
         id="feDiffuseLighting2997"
         surfaceScale="20"
         diffuseConstant="0.2"
         result="result6"
         lighting-color="#ffffff"
         in="result0">
        <feDistantLight
           id="feDistantLight2999"
           azimuth="235"
           elevation="25" />
      </feDiffuseLighting>
      <feBlend
         id="feBlend3001"
         in2="SourceGraphic"
         result="result7"
         mode="screen" />
      <feComposite
         k4="0"
         k1="0"
         id="feComposite3003"
         in2="result7"
         operator="arithmetic"
         k2="1"
         k3="1"
         in="result8"
         result="result9" />
      <feComposite
         id="feComposite3005"
         in2="SourceGraphic"
         operator="in"
         result="fbSourceGraphic"
         in="result9" />
      <feColorMatrix
         result="fbSourceGraphicAlpha"
         in="fbSourceGraphic"
         values="0 0 0 -1 0 0 0 0 -1 0 0 0 0 -1 0 0 0 0 1 0"
         id="feColorMatrix3011" />
      <feTurbulence
         id="feTurbulence3013"
         baseFrequency="0.05"
         numOctaves="5"
         type="fractalNoise"
         result="result91" />
      <feDisplacementMap
         yChannelSelector="A"
         id="feDisplacementMap3015"
         in2="result91"
         scale="25"
         result="result5"
         xChannelSelector="R"
         in="fbSourceGraphic" />
      <feComposite
         id="feComposite3017"
         in2="result5"
         in="fbSourceGraphic"
         operator="atop"
         result="fbSourceGraphic" />
      <feColorMatrix
         result="fbSourceGraphicAlpha"
         in="fbSourceGraphic"
         values="0 0 0 -1 0 0 0 0 -1 0 0 0 0 -1 0 0 0 0 1 0"
         id="feColorMatrix3051" />
      <feGaussianBlur
         id="feGaussianBlur3053"
         stdDeviation="4"
         result="result8"
         in="fbSourceGraphic" />
      <feOffset
         id="feOffset3055"
         dx="4"
         dy="4"
         result="result11" />
      <feComposite
         id="feComposite3057"
         in2="result11"
         result="result6"
         in="fbSourceGraphic"
         operator="in" />
      <feFlood
         id="feFlood3059"
         result="result10"
         in="result6"
         flood-opacity="1"
         flood-color="rgb(0,0,0)" />
      <feBlend
         id="feBlend3061"
         in2="result10"
         mode="normal"
         in="result6"
         result="result92" />
      <feComposite
         id="feComposite3063"
         in2="fbSourceGraphic"
         result="fbSourceGraphic"
         operator="in" />
      <feColorMatrix
         result="fbSourceGraphicAlpha"
         in="fbSourceGraphic"
         values="0 0 0 -1 0 0 0 0 -1 0 0 0 0 -1 0 0 0 0 1 0"
         id="feColorMatrix3085" />
      <feTurbulence
         id="feTurbulence3087"
         baseFrequency="0.05"
         numOctaves="5"
         type="fractalNoise"
         result="result91" />
      <feDisplacementMap
         yChannelSelector="A"
         id="feDisplacementMap3089"
         in2="result91"
         scale="25"
         result="result5"
         xChannelSelector="R"
         in="fbSourceGraphic" />
      <feComposite
         id="feComposite3091"
         in2="result5"
         in="fbSourceGraphic"
         operator="atop"
         result="fbSourceGraphic" />
      <feColorMatrix
         result="fbSourceGraphicAlpha"
         in="fbSourceGraphic"
         values="0 0 0 -1 0 0 0 0 -1 0 0 0 0 -1 0 0 0 0 1 0"
         id="feColorMatrix4228" />
      <feGaussianBlur
         id="feGaussianBlur4230"
         result="result6"
         stdDeviation="0.9"
         in="fbSourceGraphic" />
      <feTurbulence
         id="feTurbulence4232"
         type="fractalNoise"
         baseFrequency="0.12"
         numOctaves="3"
         result="result2" />
      <feDisplacementMap
         id="feDisplacementMap4234"
         in2="result2"
         yChannelSelector="A"
         xChannelSelector="R"
         scale="10"
         result="result5"
         in="result6" />
      <feBlend
         id="feBlend4236"
         in2="result5"
         in="result6"
         mode="lighten"
         result="fbSourceGraphic" />
      <feColorMatrix
         id="feColorMatrix4238"
         result="result2"
         type="luminanceToAlpha"
         in="fbSourceGraphic" />
      <feDiffuseLighting
         id="feDiffuseLighting4240"
         diffuseConstant="0.64999998"
         result="result1"
         surfaceScale="-4">
        <feDistantLight
           id="feDistantLight4242"
           azimuth="225"
           elevation="35" />
      </feDiffuseLighting>
      <feComposite
         k4="0"
         k2="0"
         id="feComposite4244"
         in2="fbSourceGraphic"
         result="result3"
         k3="0.5"
         k1="1.37"
         in="result1"
         operator="arithmetic" />
      <feComposite
         id="feComposite4246"
         in2="result3"
         result="fbSourceGraphic"
         operator="in"
         in="result3" />
      <feColorMatrix
         result="fbSourceGraphicAlpha"
         in="fbSourceGraphic"
         values="0 0 0 -1 0 0 0 0 -1 0 0 0 0 -1 0 0 0 0 1 0"
         id="feColorMatrix4296" />
      <feTurbulence
         id="feTurbulence4298"
         baseFrequency="0.05"
         numOctaves="5"
         type="fractalNoise"
         result="result91" />
      <feDisplacementMap
         yChannelSelector="A"
         id="feDisplacementMap4300"
         in2="result91"
         scale="25"
         result="result5"
         xChannelSelector="R"
         in="fbSourceGraphic" />
      <feComposite
         id="feComposite4302"
         in2="result5"
         in="fbSourceGraphic"
         operator="atop"
         result="fbSourceGraphic" />
      <feColorMatrix
         result="fbSourceGraphicAlpha"
         in="fbSourceGraphic"
         values="0 0 0 -1 0 0 0 0 -1 0 0 0 0 -1 0 0 0 0 1 0"
         id="feColorMatrix6855" />
      <feGaussianBlur
         id="feGaussianBlur6857"
         stdDeviation="1"
         in="fbSourceGraphic"
         result="result9" />
      <feTurbulence
         id="feTurbulence6859"
         seed="0"
         result="result7"
         type="fractalNoise"
         numOctaves="5"
         baseFrequency="0.015" />
      <feComposite
         id="feComposite6861"
         in2="result7"
         result="result6"
         operator="out"
         in="result9" />
      <feGaussianBlur
         id="feGaussianBlur6863"
         result="result11"
         stdDeviation="2" />
      <feDisplacementMap
         id="feDisplacementMap6865"
         in2="result11"
         in="result7"
         xChannelSelector="A"
         yChannelSelector="G"
         scale="100"
         result="result4" />
      <feComposite
         id="feComposite6867"
         in2="result4"
         result="result2"
         operator="in"
         in="result9" />
      <feComposite
         id="feComposite6869"
         in2="fbSourceGraphic"
         result="fbSourceGraphic"
         operator="in" />
      <feBlend
         id="feBlend6871"
         in2="fbSourceGraphic"
         result="fbSourceGraphic"
         mode="multiply" />
      <feGaussianBlur
         id="feGaussianBlur6873"
         result="result13"
         stdDeviation="0.5" />
      <feSpecularLighting
         id="feSpecularLighting6875"
         in="result13"
         specularExponent="5"
         surfaceScale="15"
         result="result12">
        <feDistantLight
           id="feDistantLight6877"
           elevation="35"
           azimuth="225" />
      </feSpecularLighting>
      <feComposite
         id="feComposite6879"
         in2="fbSourceGraphic"
         in="result12"
         result="result2"
         operator="in" />
      <feComposite
         id="feComposite6881"
         in2="result2"
         in="fbSourceGraphic"
         result="result4"
         operator="arithmetic"
         k2="1"
         k3="1" />
    </filter>
    <filter
       id="filter3300"
       inkscape:label="HSL Bumps"
       x="-0.050000001"
       y="-0.050000001"
       width="1.1"
       height="1.1"
       inkscape:menu="Bumps"
       inkscape:menu-tooltip="Highly flexible bump combining diffuse and specular lightings"
       color-interpolation-filters="sRGB">
      <feGaussianBlur
         id="feGaussianBlur3302"
         result="result6"
         stdDeviation="0.9" />
      <feTurbulence
         id="feTurbulence3304"
         type="fractalNoise"
         baseFrequency="0.12"
         numOctaves="3"
         result="result2" />
      <feDisplacementMap
         id="feDisplacementMap3306"
         in2="result2"
         yChannelSelector="A"
         xChannelSelector="R"
         scale="10"
         result="result5"
         in="result6" />
      <feBlend
         id="feBlend3308"
         in2="result5"
         in="result6"
         mode="lighten"
         result="fbSourceGraphic" />
      <feColorMatrix
         id="feColorMatrix3310"
         result="result2"
         type="luminanceToAlpha"
         in="fbSourceGraphic" />
      <feDiffuseLighting
         id="feDiffuseLighting3312"
         diffuseConstant="0.64999998"
         result="result1"
         surfaceScale="-4">
        <feDistantLight
           id="feDistantLight3314"
           azimuth="225"
           elevation="35" />
      </feDiffuseLighting>
      <feComposite
         k4="0"
         k2="0"
         id="feComposite3316"
         in2="fbSourceGraphic"
         result="result3"
         k3="0.5"
         k1="1.37"
         in="result1"
         operator="arithmetic" />
      <feComposite
         id="feComposite3318"
         in2="result3"
         result="fbSourceGraphic"
         operator="in"
         in="result3" />
      <feColorMatrix
         result="fbSourceGraphicAlpha"
         in="fbSourceGraphic"
         values="0 0 0 -1 0 0 0 0 -1 0 0 0 0 -1 0 0 0 0 1 0"
         id="feColorMatrix3388" />
      <feColorMatrix
         id="feColorMatrix3390"
         result="fbSourceGraphicAlpha"
         in="fbSourceGraphic"
         values="1 0 0 -1 0 1 0 1 -1 0 1 0 0 -1 0 -0.8 -1 0 3.7 -2.4 " />
      <feGaussianBlur
         id="feGaussianBlur3392"
         stdDeviation="0.5"
         in="fbSourceGraphicAlpha"
         result="result0" />
      <feSpecularLighting
         id="feSpecularLighting3394"
         result="result8"
         specularConstant="0.75"
         specularExponent="6"
         in="result0"
         surfaceScale="7">
        <feDistantLight
           id="feDistantLight3396"
           azimuth="235"
           elevation="15" />
      </feSpecularLighting>
      <feDiffuseLighting
         id="feDiffuseLighting3398"
         surfaceScale="20"
         diffuseConstant="0.2"
         result="result6"
         lighting-color="#ffffff"
         in="result0">
        <feDistantLight
           id="feDistantLight3400"
           azimuth="235"
           elevation="25" />
      </feDiffuseLighting>
      <feBlend
         id="feBlend3402"
         in2="fbSourceGraphic"
         result="result7"
         mode="screen" />
      <feComposite
         k4="0"
         k1="0"
         id="feComposite3404"
         in2="result7"
         operator="arithmetic"
         k2="1"
         k3="1"
         in="result8"
         result="result9" />
      <feComposite
         id="feComposite3406"
         in2="fbSourceGraphic"
         operator="in"
         result="result2"
         in="result9" />
    </filter>
    <filter
       id="filter6837"
       inkscape:label="Outline, double"
       inkscape:menu="Morphology"
       inkscape:menu-tooltip="Draws a smooth line inside colorized with the color it overlays"
       color-interpolation-filters="sRGB">
      <feGaussianBlur
         id="feGaussianBlur6839"
         stdDeviation="3"
         in="SourceAlpha"
         result="result1" />
      <feComposite
         id="feComposite6841"
         in2="result1"
         operator="arithmetic"
         k2="3.2"
         k1="-1"
         k4="-2"
         result="result3"
         k3="0" />
      <feColorMatrix
         id="feColorMatrix6843"
         values="0 0 0 0 0 0 1 0 0 0 0 0 1 0 0 0 0 0 10 0 "
         result="result2" />
      <feComposite
         id="feComposite6845"
         in2="result2"
         result="fbSourceGraphic"
         in="SourceGraphic"
         operator="out" />
      <feGaussianBlur
         id="feGaussianBlur6847"
         in="fbSourceGraphic"
         stdDeviation="0.5"
         result="result4" />
      <feComposite
         id="feComposite6849"
         in2="result4"
         operator="xor"
         in="result4"
         result="result5" />
      <feBlend
         id="feBlend6851"
         in2="result5"
         result="result6"
         mode="darken"
         in="result5" />
      <feBlend
         id="feBlend6853"
         in2="result6"
         in="result6"
         mode="darken" />
    </filter>
  </defs>
  <sodipodi:namedview
     inkscape:window-height="1017"
     inkscape:window-width="1920"
     inkscape:pageshadow="2"
     inkscape:pageopacity="0.0"
     borderopacity="1.0"
     bordercolor="#666666"
     pagecolor="#ffffff"
     id="base"
     showgrid="false"
     showguides="true"
     inkscape:guide-bbox="true"
     inkscape:zoom="2.5682118"
     inkscape:cx="281.59747"
     inkscape:cy="123.94662"
     inkscape:window-x="-8"
     inkscape:window-y="-8"
     inkscape:current-layer="layer1"
     inkscape:window-maximized="1">
    <sodipodi:guide
       orientation="horizontal"
       position="-79.4327,468.80868"
       id="guide5596" />
  </sodipodi:namedview>
  <metadata
     id="metadata5594">
    <rdf:RDF>
      <cc:Work
         rdf:about="">
        <dc:format>image/svg+xml</dc:format>
        <dc:type
           rdf:resource="http://purl.org/dc/dcmitype/StillImage" />
        <dc:title></dc:title>
      </cc:Work>
    </rdf:RDF>
  </metadata>
  <g
     inkscape:label="Layer 1"
     inkscape:groupmode="layer"
     id="layer1"
     transform="translate(0,-900)">
    <path
       sodipodi:type="arc"
       style="fill:url(#Polkadots-small);fill-opacity:1;stroke:#8c6866;stroke-width:9.72006226;stroke-linecap:round;stroke-linejoin:miter;stroke-miterlimit:4.80000019;stroke-opacity:1;stroke-dasharray:233.28153418, 233.28153418;stroke-dashoffset:30.13219784;filter:url(#filter2987)"
       id="path2985"
       sodipodi:cx="367.14285"
       sodipodi:cy="539.50507"
       sodipodi:rx="218.57143"
       sodipodi:ry="224.4384"
       d="m 585.71428,539.50507 a 218.57143,224.4384 0 1 1 -437.14285,0 218.57143,224.4384 0 1 1 437.14285,0 z"
       transform="matrix(0.21612404,0,0,0.19589291,-29.508259,852.26218)" />
  </g>
</svg>
