<?xml version="1.0" encoding="UTF-8" standalone="no"?>
<svg
   xmlns:dc="http://purl.org/dc/elements/1.1/"
   xmlns:cc="http://creativecommons.org/ns#"
   xmlns:rdf="http://www.w3.org/1999/02/22-rdf-syntax-ns#"
   xmlns:svg="http://www.w3.org/2000/svg"
   xmlns="http://www.w3.org/2000/svg"
   version="1.1"
   id="svg2"
   viewBox="0 0 88.241816 66.683762"
>
  <defs
     id="defs4" />
  <metadata
     id="metadata7">
    <rdf:RDF>
      <cc:Work
         rdf:about="">
        <dc:format>image/svg+xml</dc:format>
        <dc:type
           rdf:resource="http://purl.org/dc/dcmitype/StillImage" />
        <dc:title></dc:title>
      </cc:Work>
    </rdf:RDF>
  </metadata>
  <g
     transform="translate(-2.3558059,-971.68538)"
     id="layer1">
    <path
       id="path3340"
       d="m 25.815363,1037.8131 -23.0014282,0.092 0,-65.76161 22.8750262,3e-5 -22.5176038,0 22.1601808,0"
       style="fill:none;fill-rule:evenodd;stroke:#00493e;stroke-width:0.91625774px;stroke-linecap:butt;stroke-linejoin:miter;stroke-opacity:1" />
    <path
       id="path3340-0"
       d="m 67.137042,972.21072 23.001575,-0.0618 -0.125891,65.76148 -22.874998,-0.03 22.517576,0.029 -22.160155,-0.029"
       style="fill:none;fill-rule:evenodd;stroke:#00493e;stroke-width:0.91625774px;stroke-linecap:butt;stroke-linejoin:miter;stroke-opacity:1" />
  </g>
</svg>
