<?xml version="1.0" encoding="UTF-8" standalone="no"?>
<svg
   xmlns:dc="http://purl.org/dc/elements/1.1/"
   xmlns:cc="http://creativecommons.org/ns#"
   xmlns:rdf="http://www.w3.org/1999/02/22-rdf-syntax-ns#"
   xmlns:svg="http://www.w3.org/2000/svg"
   xmlns="http://www.w3.org/2000/svg"
   version="1.1"
   id="svg2"
   viewBox="0 0 60 59.999997"
   height="60"
   width="60"
   shape-rendering="geometricPrecision">
  <defs
     id="defs4">
    <filter
       style="color-interpolation-filters:sRGB"
       id="filter_loc"
       x="-0.068261936"
       width="1.1365238"
       y="-0.068538629"
       height="1.1370773">
      <feGaussianBlur
         stdDeviation="0.083440216"
         id="feGaussianBlur6471" />
    </filter>
  </defs>
  <metadata
     id="metadata7">
    <rdf:RDF>
      <cc:Work
         rdf:about="">
        <dc:format>image/svg+xml</dc:format>
        <dc:type
           rdf:resource="http://purl.org/dc/dcmitype/StillImage" />
        <dc:title></dc:title>
      </cc:Work>
    </rdf:RDF>
  </metadata>
  <g
     transform="translate(0,-992.36219)"
     id="layer1" >
    <path
       id="border"
       d="m 30.468751,992.59656 c 29.477946,-0.0653 28.779064,11.56634 29.296875,30.07814 -0.517811,17.883 0.03727,29.2385 -28.710939,29.2968 -30.51861408,0.3463 -30.22604624,-12.0389 -30.4687495,-29.4014 0.24270326,-18.4355 0.29818643,-29.69527 29.8828135,-29.97354 z"
       style="fill:#000000;fill-opacity:1;fill-rule:evenodd;stroke:#0088aa;stroke-width:1px;stroke-linecap:butt;stroke-linejoin:miter;stroke-opacity:1" />
    <g style='filter:url(#filter_loc);'
       id="g6560">
      <path
         id="loc"
         d="m 31.069487,999.1288 c 5.89799,-0.10458 7.929823,0.6062 10.421888,2.2069 2.442552,1.6777 4.974141,5.4817 5.670951,9.8427 0.08003,7.543 -4.493221,11.0765 -7.798504,17.27 -2.480637,4.3157 -8.504447,15.2348 -9.004755,16.6784 0,0 -8.021283,-13.7577 -9.532035,-16.6199 -3.457493,-6.4708 -8.293047,-9.9099 -8.437925,-17.2022 -0.08642,-4.3499 3.158299,-8.4517 5.850815,-9.7164 3.980854,-1.8703 6.251205,-2.468 12.829565,-2.4595 z"
         style="fill:none;fill-opacity:1;fill-rule:evenodd;stroke:#3ed5aa;stroke-width:3;stroke-linecap:butt;stroke-linejoin:miter;stroke-miterlimit:4;stroke-dasharray:none;stroke-opacity:1;"/>
    </g>
    <path
       style="fill:none;fill-opacity:1;fill-rule:evenodd;stroke:#3ed5aa;stroke-width:3;stroke-linecap:butt;stroke-linejoin:miter;stroke-miterlimit:4;stroke-dasharray:none;stroke-opacity:1;"
       d="m 30.240215,1017.1979 c -2.147031,0 -4.819205,-1.1224 -5.10629,-4.3306 0.311601,-3.137 1.939396,-5.224 5.209386,-5.1553 4.057109,0.1866 5.397591,3.1809 5.233338,5.1553 -0.04792,2.7572 -2.852516,4.3175 -5.336434,4.3306 z"
       id="path4781-5" />
  </g>
  

</svg>
